<svg
 xmlns="http://www.w3.org/2000/svg"
 xmlns:xlink="http://www.w3.org/1999/xlink"
 width="459px" height="459px">
<path fill-rule="evenodd"  fill="rgb(102, 102, 102)"
 d="M124.950,181.050 L89.250,216.750 L204.000,331.500 L459.000,76.500 L423.300,40.800 L204.000,260.100 L124.950,181.050 ZM408.000,408.000 L51.000,408.000 L51.000,51.000 L306.000,51.000 L306.000,-0.000 L51.000,-0.000 C22.950,-0.000 -0.000,22.950 -0.000,51.000 L-0.000,408.000 C-0.000,436.050 22.950,459.000 51.000,459.000 L408.000,459.000 C436.050,459.000 459.000,436.050 459.000,408.000 L459.000,204.000 L408.000,204.000 L408.000,408.000 Z"/>
</svg>
