<svg
 xmlns="http://www.w3.org/2000/svg"
 xmlns:xlink="http://www.w3.org/1999/xlink"
 width="498px" height="512px">
<path fill-rule="evenodd"  fill="rgb(83, 83, 83)"
 d="M485.707,159.530 L246.393,398.965 C244.887,400.472 243.016,401.564 240.963,402.134 C240.963,402.134 163.071,423.759 163.006,423.776 C162.608,423.880 159.902,424.186 159.901,424.186 L96.601,424.186 C89.780,424.186 84.250,418.653 84.250,411.828 C84.250,405.003 89.780,399.470 96.601,399.470 L150.509,399.470 L169.588,330.723 C170.158,328.669 171.248,326.798 172.755,325.290 L172.954,325.091 L96.601,325.091 C89.780,325.091 84.250,319.558 84.250,312.733 C84.250,305.908 89.780,300.375 96.601,300.375 L197.658,300.375 L271.999,225.996 L96.601,225.996 C89.780,225.996 84.250,220.463 84.250,213.638 C84.250,206.813 89.780,201.280 96.601,201.280 L296.702,201.280 L412.065,85.857 C428.363,69.555 454.877,69.553 471.172,85.857 L485.706,100.396 C502.000,116.700 502.000,143.228 485.707,159.530 ZM187.726,357.747 L177.644,394.073 L213.953,383.987 L187.726,357.747 ZM396.504,136.383 L198.958,334.031 L237.659,372.752 L435.206,175.104 L396.504,136.383 ZM468.237,117.873 L453.703,103.332 C447.043,96.665 436.201,96.664 429.535,103.332 L413.972,118.903 L452.674,157.625 L468.237,142.054 C474.900,135.388 474.900,124.540 468.237,117.873 ZM390.626,78.378 C383.805,78.378 378.274,72.845 378.274,66.020 L378.274,27.027 C378.274,25.753 377.244,24.716 375.978,24.716 L127.028,24.716 L127.028,100.076 C127.028,114.973 114.916,127.093 100.026,127.093 L24.705,127.093 L24.705,484.973 C24.705,486.247 25.741,487.284 27.014,487.284 L375.979,487.284 C377.244,487.284 378.275,486.247 378.275,484.973 L378.275,296.289 C378.275,289.464 383.806,283.931 390.626,283.931 C397.448,283.931 402.978,289.465 402.977,296.289 L402.977,484.973 C402.977,499.875 390.866,512.000 375.977,512.000 L27.013,512.000 C12.118,512.000 0.000,499.875 -0.001,484.972 L-0.001,114.733 C-0.001,111.456 1.302,108.312 3.618,105.995 L105.940,3.620 C108.257,1.303 111.399,0.000 114.674,0.000 L375.978,0.000 C390.867,0.000 402.978,12.125 402.978,27.027 L402.978,66.020 C402.978,72.845 397.447,78.378 390.626,78.378 ZM102.324,42.196 L42.178,102.376 L100.026,102.376 C101.293,102.376 102.324,101.344 102.324,100.075 L102.324,42.196 Z"/>
</svg>
