<svg
 xmlns="http://www.w3.org/2000/svg"
 xmlns:xlink="http://www.w3.org/1999/xlink"
 width="512px" height="384px">
<path fill-rule="evenodd"  fill="rgb(83, 83, 83)"
 d="M476.733,384.001 L35.267,384.001 C15.821,384.001 0.000,368.198 0.000,348.774 L0.000,60.530 C0.000,41.107 15.821,25.305 35.265,25.305 L112.975,25.305 L112.975,11.741 C112.975,5.257 118.238,-0.001 124.731,-0.001 C131.224,-0.001 136.487,5.256 136.487,11.741 L136.487,25.305 L200.488,25.305 L200.488,11.741 C200.488,5.257 205.751,-0.001 212.244,-0.001 C218.737,-0.001 224.000,5.256 224.000,11.741 L224.000,25.305 L287.998,25.305 L287.998,11.741 C287.998,5.257 293.261,-0.001 299.754,-0.001 C306.246,-0.001 311.510,5.256 311.510,11.741 L311.510,25.305 L375.511,25.305 L375.511,11.741 C375.511,5.257 380.776,-0.001 387.267,-0.001 C393.760,-0.001 399.023,5.256 399.023,11.741 L399.023,25.305 L476.732,25.305 C496.177,25.305 511.999,41.107 512.000,60.530 L512.000,348.774 C512.000,368.198 496.179,384.001 476.733,384.001 ZM488.489,348.774 L488.489,60.530 C488.489,54.056 483.215,48.788 476.733,48.788 L399.024,48.788 L399.024,62.350 C399.024,68.835 393.761,74.093 387.268,74.093 C380.776,74.093 375.512,68.834 375.512,62.350 L375.512,48.788 L311.511,48.788 L311.511,62.350 C311.511,68.835 306.246,74.093 299.755,74.093 C293.262,74.093 287.999,68.834 287.999,62.350 L287.999,48.788 L224.001,48.788 L224.001,62.350 C224.001,68.835 218.738,74.093 212.245,74.093 C205.752,74.093 200.489,68.834 200.489,62.350 L200.489,48.788 L136.488,48.788 L136.488,62.350 C136.488,68.835 131.225,74.093 124.732,74.093 C118.239,74.093 112.976,68.834 112.976,62.350 L112.976,48.788 L35.267,48.788 C28.785,48.788 23.511,54.056 23.511,60.530 L23.511,348.775 C23.511,355.250 28.785,360.518 35.267,360.518 L476.732,360.518 C483.214,360.518 488.488,355.250 488.490,348.774 L488.489,348.774 ZM414.089,305.595 C407.292,305.595 401.781,300.091 401.781,293.301 C401.781,286.512 407.292,281.008 414.089,281.008 C420.887,281.008 426.397,286.512 426.397,293.301 C426.397,300.091 420.887,305.595 414.089,305.595 ZM414.089,226.642 C407.292,226.642 401.781,221.137 401.781,214.348 C401.781,207.558 407.292,202.054 414.089,202.054 C420.887,202.054 426.397,207.558 426.397,214.348 C426.397,221.137 420.887,226.642 414.089,226.642 ZM414.089,147.687 C407.292,147.687 401.781,142.183 401.781,135.393 C401.781,128.603 407.292,123.099 414.089,123.099 C420.887,123.099 426.397,128.603 426.397,135.393 C426.397,142.183 420.887,147.687 414.089,147.687 ZM335.045,305.595 C328.248,305.595 322.737,300.091 322.737,293.301 C322.737,286.512 328.248,281.008 335.045,281.008 C341.843,281.008 347.353,286.512 347.353,293.301 C347.353,300.091 341.843,305.595 335.045,305.595 ZM335.045,226.642 C328.248,226.642 322.737,221.137 322.737,214.348 C322.737,207.558 328.248,202.054 335.045,202.054 C341.843,202.054 347.353,207.558 347.353,214.348 C347.353,221.137 341.843,226.642 335.045,226.642 ZM335.045,147.687 C328.248,147.687 322.737,142.183 322.737,135.393 C322.737,128.603 328.248,123.099 335.045,123.099 C341.843,123.099 347.353,128.603 347.353,135.393 C347.353,142.183 341.843,147.687 335.045,147.687 ZM256.000,305.595 C249.203,305.595 243.693,300.091 243.693,293.301 C243.693,286.512 249.203,281.008 256.000,281.008 C262.798,281.008 268.308,286.512 268.308,293.301 C268.308,300.091 262.798,305.595 256.000,305.595 ZM256.000,226.642 C249.203,226.642 243.693,221.137 243.693,214.348 C243.693,207.558 249.203,202.054 256.000,202.054 C262.798,202.054 268.308,207.558 268.308,214.348 C268.308,221.137 262.798,226.642 256.000,226.642 ZM256.000,147.687 C249.203,147.687 243.693,142.183 243.693,135.393 C243.693,128.603 249.203,123.099 256.000,123.099 C262.798,123.099 268.308,128.603 268.308,135.393 C268.308,142.183 262.798,147.687 256.000,147.687 ZM214.100,262.021 L139.810,262.021 C133.966,262.021 129.230,257.291 129.230,251.453 L129.230,177.247 C129.230,171.410 133.966,166.679 139.810,166.679 L214.100,166.679 C219.943,166.679 224.680,171.411 224.680,177.249 L224.680,251.453 C224.680,257.291 219.944,262.021 214.100,262.021 ZM203.519,187.816 L150.390,187.816 L150.390,240.884 L203.519,240.884 L203.519,187.816 ZM176.957,147.687 C170.159,147.687 164.649,142.183 164.649,135.393 C164.649,128.603 170.159,123.099 176.957,123.099 C183.754,123.099 189.265,128.603 189.265,135.393 C189.265,142.183 183.754,147.687 176.957,147.687 ZM176.957,281.008 C183.754,281.008 189.265,286.512 189.265,293.301 C189.265,300.091 183.754,305.595 176.957,305.595 C170.159,305.595 164.649,300.091 164.649,293.301 C164.649,286.512 170.159,281.008 176.957,281.008 ZM97.912,305.595 C91.114,305.595 85.604,300.091 85.604,293.301 C85.604,286.512 91.114,281.008 97.912,281.008 C104.709,281.008 110.220,286.512 110.220,293.301 C110.220,300.091 104.709,305.595 97.912,305.595 ZM97.912,226.642 C91.114,226.642 85.604,221.137 85.604,214.348 C85.604,207.558 91.114,202.054 97.912,202.054 C104.709,202.054 110.220,207.558 110.220,214.348 C110.220,221.137 104.709,226.642 97.912,226.642 ZM97.912,147.687 C91.114,147.687 85.604,142.183 85.604,135.393 C85.604,128.603 91.114,123.099 97.912,123.099 C104.709,123.099 110.220,128.603 110.220,135.393 C110.220,142.183 104.709,147.687 97.912,147.687 Z"/>
</svg>
