<svg
 xmlns="http://www.w3.org/2000/svg"
 xmlns:xlink="http://www.w3.org/1999/xlink"
 width="491px" height="335px">
<path fill-rule="evenodd"  fill="rgb(83, 83, 83)"
 d="M490.200,267.159 C490.200,272.663 485.701,277.065 480.202,277.065 L459.907,277.065 C454.408,277.065 449.909,272.563 449.909,267.059 C449.909,261.556 454.408,257.053 459.907,257.053 L470.304,257.053 L471.004,120.072 L405.818,66.040 L325.234,66.040 L325.234,257.254 L345.330,257.254 C350.829,257.254 355.328,261.756 355.328,267.259 C355.328,272.763 350.829,277.265 345.330,277.265 L223.255,277.265 C217.756,277.265 213.257,272.763 213.257,267.259 C213.257,261.756 217.756,257.254 223.255,257.254 L305.238,257.254 L305.238,20.013 L70.486,20.013 L70.486,83.250 C70.486,88.753 65.986,93.256 60.488,93.256 C54.989,93.256 50.490,88.753 50.490,83.250 L50.490,10.007 C50.490,4.503 54.989,0.001 60.488,0.001 L315.136,0.001 C320.635,0.001 325.134,4.503 325.134,10.007 L325.134,46.028 L409.317,46.028 C411.716,46.028 413.916,46.829 415.716,48.330 L487.301,107.665 C489.601,109.566 490.900,112.468 491.000,115.469 L490.200,267.159 ZM171.965,101.161 C177.464,101.161 181.963,105.664 181.963,111.167 C181.963,116.670 177.464,121.173 171.965,121.173 L50.690,121.173 C45.191,121.173 40.692,116.670 40.692,111.167 C40.692,105.664 45.191,101.161 50.690,101.161 L171.965,101.161 ZM161.667,157.394 C161.567,162.897 157.068,167.300 151.569,167.300 L30.294,166.600 C24.795,166.600 20.296,162.097 20.396,156.494 C20.396,150.990 24.895,146.588 30.394,146.588 C30.394,146.588 30.394,146.588 30.494,146.588 L151.769,147.288 C157.268,147.288 161.767,151.791 161.667,157.394 ZM141.271,202.721 C141.271,208.324 136.772,212.727 131.273,212.727 L9.998,212.727 C4.499,212.727 -0.000,208.224 -0.000,202.721 C-0.000,197.218 4.499,192.715 9.998,192.715 L131.273,192.715 C136.772,192.715 141.271,197.218 141.271,202.721 ZM60.488,220.632 C65.986,220.632 70.486,225.134 70.486,230.638 L70.486,257.254 L90.582,257.254 C96.080,257.254 100.579,261.756 100.579,267.259 C100.579,272.763 96.080,277.265 90.582,277.265 L60.488,277.265 C54.989,277.265 50.490,272.763 50.490,267.259 L50.490,230.638 C50.490,225.134 54.989,220.632 60.488,220.632 ZM157.268,244.946 C181.863,244.946 201.859,265.158 201.859,289.973 C201.859,314.788 181.863,335.000 157.268,335.000 C145.270,335.000 133.973,330.297 125.274,321.792 C116.576,313.187 111.877,301.980 111.877,289.973 C111.877,277.966 116.676,266.759 125.274,258.154 C133.873,249.649 145.270,244.946 157.268,244.946 ZM157.268,314.988 C170.865,314.988 181.863,303.781 181.863,289.973 C181.863,276.165 170.865,264.958 157.268,264.958 C143.471,264.958 131.873,276.365 131.873,289.973 C131.873,303.581 143.471,314.988 157.268,314.988 ZM436.411,194.416 L355.028,194.416 C349.529,194.416 345.030,189.914 345.030,184.410 L345.030,102.362 C345.030,96.858 349.529,92.356 355.028,92.356 L406.317,92.356 C408.817,92.356 411.216,93.256 413.016,94.957 L443.110,122.073 C445.210,123.974 446.409,126.676 446.409,129.478 L446.409,184.410 C446.409,189.914 441.910,194.416 436.411,194.416 ZM426.413,133.880 L402.418,112.267 L365.026,112.267 L365.026,174.404 L426.413,174.404 L426.413,133.880 ZM401.418,244.946 C426.013,244.946 446.009,265.158 446.009,289.973 C446.009,314.788 426.013,335.000 401.418,335.000 C389.421,335.000 378.123,330.297 369.425,321.792 C360.727,313.187 356.028,301.980 356.028,289.973 C356.028,277.966 360.827,266.759 369.425,258.154 C378.023,249.649 389.421,244.946 401.418,244.946 ZM401.418,314.988 C415.016,314.988 426.013,303.781 426.013,289.973 C426.013,276.165 415.016,264.958 401.418,264.958 C387.621,264.958 376.024,276.365 376.024,289.973 C376.024,303.581 387.621,314.988 401.418,314.988 Z"/>
</svg>
