<svg
 xmlns="http://www.w3.org/2000/svg"
 xmlns:xlink="http://www.w3.org/1999/xlink"
 width="538px" height="612px">
<path fill-rule="evenodd"  fill="rgb(83, 83, 83)"
 d="M326.497,327.528 L327.777,307.064 C344.487,312.937 361.997,315.914 380.037,315.914 C467.139,315.914 538.000,245.055 538.000,157.957 C538.000,70.858 467.139,-0.000 380.037,-0.000 C296.266,-0.000 227.529,65.547 222.394,148.043 L173.309,148.043 C149.891,148.043 128.166,157.441 112.131,174.509 C96.098,191.574 88.073,213.844 89.534,237.213 L95.178,327.527 C95.284,366.610 111.747,401.571 137.474,424.667 L137.474,440.467 L120.048,466.604 L38.474,488.852 C15.821,495.030 0.000,515.743 0.000,539.222 L0.000,580.937 C0.000,598.065 13.935,612.000 31.064,612.000 L390.612,612.000 C407.741,612.000 421.676,598.065 421.676,580.937 L421.676,539.222 C421.676,515.741 405.854,495.029 383.201,488.852 L301.628,466.604 L284.202,440.467 L284.202,424.667 C309.929,401.572 326.390,366.612 326.497,327.528 ZM210.838,483.436 L158.057,439.454 C173.890,448.353 191.836,453.382 210.838,453.382 C229.840,453.382 247.785,448.353 263.619,439.454 L210.838,483.436 ZM149.516,458.146 L196.151,497.006 L170.648,522.507 C170.582,522.573 170.414,522.722 170.116,522.698 C169.806,522.668 169.683,522.485 169.631,522.407 L138.154,475.192 L149.516,458.146 ZM210.838,559.127 C211.669,559.127 212.490,559.085 213.304,559.020 L220.105,592.173 L201.570,592.173 L208.371,559.020 C209.185,559.085 210.006,559.127 210.838,559.127 ZM222.074,528.065 C222.074,534.260 217.033,539.300 210.838,539.300 C204.642,539.300 199.602,534.260 199.602,528.065 L199.602,521.597 L210.838,510.362 L222.074,521.597 L222.074,528.065 ZM225.524,497.007 L272.158,458.147 L283.522,475.194 L252.044,522.409 C251.993,522.488 251.870,522.669 251.559,522.701 C251.259,522.723 251.093,522.575 251.028,522.509 L225.524,497.007 ZM331.292,250.797 C343.781,246.058 356.790,243.191 370.123,242.245 L370.123,294.816 C355.666,291.118 341.967,279.392 330.665,260.838 L331.292,250.797 ZM451.508,261.970 C455.110,264.161 458.619,266.524 462.028,269.050 C454.558,274.578 446.512,279.368 437.999,283.319 C441.687,278.551 445.186,273.293 448.465,267.558 C449.509,265.731 450.523,263.868 451.508,261.970 ZM389.951,294.804 L389.951,242.286 C405.093,243.384 419.878,246.966 433.744,252.858 C422.248,275.068 406.901,290.432 389.951,294.804 ZM389.951,222.386 L389.951,167.870 L454.519,167.870 C453.530,192.296 448.926,215.197 441.718,234.692 C425.353,227.710 407.861,223.519 389.951,222.386 ZM389.951,148.043 L389.951,93.528 C407.861,92.393 425.353,88.203 441.718,81.221 C448.926,100.717 453.529,123.617 454.519,148.043 L389.951,148.043 ZM389.951,73.628 L389.951,21.109 C406.901,25.482 422.248,40.845 433.744,63.056 C419.878,68.947 405.093,72.529 389.951,73.628 ZM448.466,48.356 C445.188,42.621 441.690,37.362 438.001,32.595 C446.514,36.545 454.558,41.336 462.030,46.864 C458.621,49.390 455.111,51.752 451.509,53.943 C450.523,52.045 449.509,50.183 448.466,48.356 ZM308.566,53.943 C304.964,51.753 301.454,49.390 298.044,46.865 C305.515,41.337 313.560,36.547 322.073,32.595 C318.385,37.362 314.886,42.621 311.608,48.356 C310.565,50.183 309.551,52.045 308.566,53.943 ZM370.123,21.109 L370.123,73.628 C354.982,72.529 340.196,68.947 326.329,63.056 C337.826,40.845 353.173,25.482 370.123,21.109 ZM370.123,93.528 L370.123,148.043 L305.555,148.043 C306.545,123.617 311.148,100.717 318.356,81.221 C334.722,88.203 352.213,92.395 370.123,93.528 ZM305.485,170.497 C305.466,169.691 305.451,168.800 305.436,167.870 L370.123,167.870 L370.123,222.382 C357.200,223.183 344.534,225.556 332.259,229.471 C331.700,208.962 323.794,189.679 309.543,174.509 C308.233,173.114 306.870,171.788 305.485,170.497 ZM477.407,255.837 C471.744,251.389 465.815,247.352 459.664,243.744 C468.307,221.179 473.358,195.170 474.349,167.872 L517.814,167.872 C515.371,202.138 500.376,232.988 477.407,255.837 ZM517.812,148.043 L474.348,148.043 C473.357,120.745 468.306,94.734 459.662,72.171 C465.814,68.562 471.744,64.526 477.406,60.078 C500.376,82.925 515.371,113.775 517.812,148.043 ZM282.667,60.076 C288.330,64.524 294.258,68.561 300.410,72.170 C291.766,94.734 286.716,120.745 285.724,148.043 L248.366,148.043 L242.260,148.043 C244.703,113.775 259.698,82.924 282.667,60.076 ZM126.583,188.085 C138.830,175.049 155.424,167.870 173.310,167.870 L231.988,167.870 L248.367,167.870 C266.252,167.870 282.847,175.049 295.094,188.085 C307.339,201.119 313.468,218.128 312.353,235.977 L310.488,265.813 C302.094,248.764 293.403,237.387 292.702,236.484 C289.981,232.971 285.252,231.694 281.141,233.365 C231.343,253.536 137.752,253.788 136.812,253.788 C134.591,253.788 132.434,254.534 130.688,255.907 C129.996,256.450 120.836,263.806 111.930,277.692 L109.324,235.978 C108.208,218.127 114.338,201.119 126.583,188.085 ZM115.013,327.589 C117.993,298.051 134.499,279.532 140.640,273.585 C158.475,273.359 232.634,271.397 281.165,254.523 C289.321,266.817 306.673,296.570 306.673,327.149 C306.673,385.822 263.682,433.555 210.838,433.555 C158.127,433.555 115.229,386.060 115.013,327.589 ZM19.828,580.937 L19.828,539.222 C19.828,524.658 29.642,511.812 43.693,507.978 L121.953,486.635 L153.134,533.406 C156.554,538.534 162.032,541.821 168.164,542.429 C168.847,542.496 169.527,542.529 170.205,542.529 C174.349,542.529 178.354,541.270 181.746,538.943 C183.471,543.539 186.254,547.621 189.799,550.890 L181.330,592.173 L93.853,592.173 L93.853,559.788 C93.853,554.312 89.415,549.875 83.939,549.875 C78.462,549.875 74.025,554.312 74.025,559.788 L74.025,592.173 L31.064,592.173 C24.868,592.173 19.828,587.133 19.828,580.937 ZM401.848,539.222 L401.848,580.937 C401.848,587.133 396.807,592.173 390.612,592.173 L347.651,592.173 L347.651,559.788 C347.651,554.312 343.214,549.875 337.737,549.875 C332.261,549.875 327.823,554.312 327.823,559.788 L327.823,592.173 L240.346,592.173 L231.878,550.892 C235.423,547.622 238.206,543.542 239.931,538.946 C243.323,541.272 247.327,542.532 251.472,542.532 C252.150,542.532 252.831,542.499 253.513,542.432 C259.645,541.824 265.123,538.536 268.543,533.408 L299.724,486.638 L377.984,507.981 C392.034,511.812 401.848,524.660 401.848,539.222 Z"/>
</svg>
