<svg
 xmlns="http://www.w3.org/2000/svg"
 xmlns:xlink="http://www.w3.org/1999/xlink"
 width="512px" height="457px">
<path fill-rule="evenodd"  fill="rgb(83, 83, 83)"
 d="M505.995,345.123 L260.239,456.076 C260.235,456.078 260.230,456.080 260.226,456.082 L260.194,456.096 L260.192,456.094 C258.865,456.693 257.434,457.000 255.998,457.000 C254.573,457.000 253.143,456.700 251.805,456.095 L6.004,345.121 C2.350,343.471 0.000,339.833 0.000,335.822 L0.000,122.035 L0.005,122.035 C0.006,118.034 2.339,114.397 5.986,112.743 L251.785,1.226 C251.785,1.226 251.788,1.236 251.788,1.237 C254.441,0.031 257.510,0.000 260.212,1.226 L506.013,112.743 C509.660,114.397 511.992,118.032 511.994,122.032 C511.995,122.032 512.000,122.034 511.999,122.034 L511.999,335.824 C511.999,339.835 509.649,343.474 505.995,345.123 ZM20.399,137.579 L20.399,329.233 L245.801,430.997 L245.801,235.354 L35.576,144.163 L20.399,137.579 ZM245.802,26.347 L60.976,110.200 L245.802,110.200 L245.802,26.347 ZM245.802,130.605 L55.598,130.605 L233.659,207.843 L245.802,213.111 L245.802,130.605 ZM266.199,26.347 L266.199,110.202 L357.992,110.202 C363.624,110.202 368.191,114.770 368.191,120.404 C368.191,126.038 363.624,130.606 357.992,130.606 L266.199,130.606 L266.199,213.112 L278.342,207.844 L476.646,121.825 L266.199,26.347 ZM491.601,329.233 L491.601,137.579 L476.424,144.163 L266.199,235.352 L266.199,430.997 L491.602,329.233 L491.601,329.233 ZM342.213,255.770 L420.030,222.016 C423.183,220.649 426.813,220.960 429.685,222.846 C432.557,224.732 434.288,227.939 434.287,231.375 L434.287,299.055 C434.287,303.066 431.938,306.705 428.283,308.354 L350.467,343.488 C349.128,344.093 347.697,344.392 346.272,344.392 C344.337,344.392 342.413,343.842 340.738,342.760 C337.829,340.882 336.072,337.655 336.072,334.190 L336.072,265.131 C336.072,261.065 338.485,257.388 342.213,255.770 ZM356.472,318.392 L413.890,292.468 L413.890,246.921 L356.472,271.826 L356.472,318.392 ZM393.690,110.200 L400.829,110.200 C406.461,110.200 411.028,114.768 411.028,120.402 C411.028,126.036 406.461,130.604 400.829,130.604 L393.690,130.604 C388.058,130.604 383.491,126.036 383.491,120.402 C383.491,114.768 388.058,110.200 393.690,110.200 Z"/>
</svg>
