<?xml version="1.0" encoding="iso-8859-1"?>
<!-- Generator: Adobe Illustrator 19.0.0, SVG Export Plug-In . SVG Version: 6.00 Build 0)  -->
<svg version="1.1" id="Layer_1" xmlns="http://www.w3.org/2000/svg" xmlns:xlink="http://www.w3.org/1999/xlink" x="0px" y="0px"
	 viewBox="0 0 496 496" style="enable-background:new 0 0 496 496;" xml:space="preserve">
<g>
	<g>
		<g>
			<path d="M496,64V16h-72V0H72v16H0v48h16v16H0v16h16v16H0v16h16v16H0v16h16v336h88h288h88V160h16v-16h-16v-16h16v-16h-16V96h16V80
				h-16V64H496z M480,32v16h-56V32H480z M88,16h320v144H88V16z M16,32h56v16H16V32z M32,64h40v16H32V64z M32,96h40v16H32V96z
				 M32,128h40v16H32V128z M120,480V272h120v208H120z M256,480V272h120v208H256z M464,480h-72V256H104v224H32V160h40v16h352v-16h40
				V480z M464,144h-40v-16h40V144z M464,112h-40V96h40V112z M464,80h-40V64h40V80z"/>
			<path d="M224,32h-48v16h32v16v8v24l9.752,40h23.625c3.303,9.311,12.196,16,22.623,16s19.32-6.689,22.623-16h23.625l9.512-38.056
				L320,64h-96V32z M264,136c-4.408,0-8-3.592-8-8s3.592-8,8-8c4.408,0,8,3.592,8,8S268.408,136,264,136z M304,95.016L297.752,120
				h-11.129c-3.303-9.311-12.196-16-22.623-16s-19.32,6.689-22.623,16h-11.129L224,95.016V80h80V95.016z"/>
			<rect x="208" y="360" width="16" height="16"/>
			<rect x="272" y="360" width="16" height="16"/>
			<polygon points="104,72 120,72 120,48 144,48 144,32 104,32 			"/>
			<polygon points="120,104 104,104 104,144 144,144 144,128 120,128 			"/>
			<polygon points="352,48 376,48 376,72 392,72 392,32 352,32 			"/>
			<polygon points="376,128 352,128 352,144 392,144 392,104 376,104 			"/>
		</g>
	</g>
</g>
<g>
</g>
<g>
</g>
<g>
</g>
<g>
</g>
<g>
</g>
<g>
</g>
<g>
</g>
<g>
</g>
<g>
</g>
<g>
</g>
<g>
</g>
<g>
</g>
<g>
</g>
<g>
</g>
<g>
</g>
</svg>
