<?xml version="1.0" encoding="iso-8859-1"?>
<!-- Generator: Adobe Illustrator 19.0.0, SVG Export Plug-In . SVG Version: 6.00 Build 0)  -->
<svg version="1.1" id="Layer_1" xmlns="http://www.w3.org/2000/svg" xmlns:xlink="http://www.w3.org/1999/xlink" x="0px" y="0px"
	 viewBox="0 0 512 512" style="enable-background:new 0 0 512 512;" xml:space="preserve">
<path style="fill:#FCB33B;" d="M467,512H45c-24.853,0-45-20.147-45-45V150.995L30,121h452l30,29.995V467
	C512,491.853,491.853,512,467,512z"/>
<path style="fill:#F69838;" d="M256,121v391h211c24.853,0,45-20.147,45-45V150.995L482,121H256z"/>
<path style="fill:#FFDE33;" d="M512,151H0L48.685,28.287C55.519,11.203,72.066,0,90.466,0h331.067
	c18.401,0,34.948,11.203,41.781,28.287L512,151z"/>
<path style="fill:#FFBC33;" d="M421.533,0H256v151h256L463.314,28.286C456.481,11.202,439.933,0,421.533,0z"/>
<path style="fill:#E6EEFF;" d="M196,452H75c-8.291,0-15-6.709-15-15v-60c0-8.291,6.709-15,15-15h121c8.291,0,15,6.709,15,15v60
	C211,445.291,204.291,452,196,452z"/>
<g>
	<path style="fill:#994D4D;" d="M437,452h-91c-8.291,0-15-6.709-15-15s6.709-15,15-15h91c8.291,0,15,6.709,15,15
		S445.291,452,437,452z"/>
	<path style="fill:#994D4D;" d="M376,392c-3.838,0-7.676-1.465-10.605-4.395l-30-30c-5.859-5.859-5.859-15.352,0-21.211
		s15.352-5.859,21.211,0L376,355.789l50.395-49.395c5.859-5.859,15.352-5.859,21.211,0s5.859,15.352,0,21.211l-60,60
		C384.676,390.535,379.838,392,376,392z"/>
</g>
<path style="fill:#FFDFB3;" d="M297.704,121h-83.655L181,151v136c0,10.88,11.419,18.434,21.709,13.418L256,273.772l53.291,26.646
	C319.343,305.409,331,298.077,331,287V151L297.704,121z"/>
<path style="fill:#FFCF99;" d="M256,121v152.772l53.291,26.646C319.344,305.409,331,298.076,331,287V151l-33.296-30H256z"/>
<path style="fill:#FFEACC;" d="M331,151H181l27.588-138.942C209.991,5.047,216.147,0,223.297,0h65.406
	c7.15,0,13.306,5.047,14.709,12.058L331,151z"/>
<path style="fill:#FFDBB3;" d="M288.703,0H256v151h75L303.411,12.057C302.009,5.046,295.853,0,288.703,0z"/>
<g>
</g>
<g>
</g>
<g>
</g>
<g>
</g>
<g>
</g>
<g>
</g>
<g>
</g>
<g>
</g>
<g>
</g>
<g>
</g>
<g>
</g>
<g>
</g>
<g>
</g>
<g>
</g>
<g>
</g>
</svg>
