<svg 
 xmlns="http://www.w3.org/2000/svg"
 xmlns:xlink="http://www.w3.org/1999/xlink"
 width="28px" height="26px">
<path fill-rule="evenodd"  fill="rgb(255,255,255)"
 d="M26.999,2.002 L0.996,2.002 C0.444,2.002 -0.000,1.552 -0.000,1.001 C-0.000,0.449 0.444,-0.000 0.996,-0.000 L26.999,-0.000 C27.551,-0.000 28.000,0.449 28.000,1.001 C28.000,1.552 27.551,2.002 26.999,2.002 L26.999,2.002 ZM18.999,9.999 L1.000,9.999 C0.448,9.999 -0.001,9.550 -0.001,8.998 C-0.001,8.447 0.448,7.997 1.000,7.997 L18.999,7.997 C19.551,7.997 20.000,8.447 20.000,8.998 C20.000,9.550 19.551,9.999 18.999,9.999 L18.999,9.999 ZM0.998,23.999 L15.999,23.999 C16.551,23.999 17.000,24.447 17.000,24.999 C17.000,25.550 16.551,26.000 15.999,26.000 L0.998,26.000 C0.446,26.000 -0.003,25.550 -0.003,24.999 C-0.003,24.447 0.446,23.999 0.998,23.999 L0.998,23.999 ZM0.996,16.000 L26.999,16.000 C27.551,16.000 28.000,16.449 28.000,17.001 C28.000,17.553 27.551,17.996 26.999,17.996 L0.996,17.996 C0.444,17.996 -0.000,17.553 -0.000,17.001 C-0.000,16.449 0.444,16.000 0.996,16.000 L0.996,16.000 ZM0.996,16.000 L0.996,16.000 Z"/>
</svg>